…
    ## New names:
    ## * `` -> ...1
    ## * `` -> ...2
    ## * `` -> ...3
    ## * `` -> ...4
    ## * `` -> ...5
    ## * ...

``` r
trash_df
```

    ## # A tibble: 534 x 14
    ##    x1    x2    x3    x4    x5    x6    x7    x8    x9    x10   x11   x12   x13  
    ##    <chr> <chr> <chr> <chr> <chr> <chr> <chr> <chr> <chr> <chr> <chr> <chr> <chr>
    ##  1 Dump~ Month Year  Date  Weig~ Volu~ Plas~ Poly~ Ciga~ Glas~ Groc~ Chip~ Spor~
    ##  2 1     May   2014  41775 4.30~ 18    1450  1820  1260~ 72    584   1162  7.19~
    ##  3 2     May   2014  41775 2.74  13    1120  1030  91000 42    496   874   5.2  
    ##  4 3     May   2014  41775 3.45  15    2450  3100  1050~ 50    1080  2032  6    
    ##  5 4     May   2014  41776 3.1   15    2380  2730  1000~ 52    896   1971  6    
    ##  6 5     May   2014  41776 4.05~ 18    980   870   1200~ 72    368   753   7.19~
    ##  7 6     May   2014  41779 2.71  13    1430  2140  90000 46    672   1144  5.2  
    ##  8 7     May   2014  41780 1.91  8     910   1090  56000 32    416   692   3.2  
    ##  9 8     May   2014  41787 3.7   16    3580  4310  1120~ 58    1552  3015  6.4  
    ## 10 <NA>  May ~ <NA>  <NA>  25.98 116   14300 17090 8000~ 424   6064  11643 46.4 
    ## # ... with 524 more rows, and 1 more variable: x14 <chr>
…
